An asset level dataset for demonstration — ald_demo • r2dii.data
…
    data_dictionary

Other demo datasets: 
data_dictionary(),
iso_codes,
loanbook_demo,
overwrite_demo,
region_isos,
scenario_demo

    Examples

ald_demo
#> # A tibble: 17,368 x 13
#>    name_company sector technology production_unit  year production
#>    <chr>        <chr>  <chr>      <chr>           <dbl>      <dbl>
#>  1 aba hydropo… power  hydrocap   MW               2013    133340.
#>  2 aba hydropo… power  hydrocap   MW               2014    131582.
#>  3 aba hydropo… power  hydrocap   MW               2015    129824.
#>  4 aba hydropo… power  hydrocap   MW               2016    128065.
#>  5 aba hydropo… power  hydrocap   MW               2017    126307.
#>  6 aba hydropo… power  hydrocap   MW               2018    124549.
#>  7 aba hydropo… power  hydrocap   MW               2019    122790.
#>  8 aba hydropo… power  hydrocap   MW               2020    121032.
#>  9 aba hydropo… power  hydrocap   MW               2021    119274.
#> 10 aba hydropo… power  hydrocap   MW               2022    117515.
#> # … with 17,358 more rows, and 7 more variables: emission_factor <dbl>,
#> #   country_of_domicile <chr>, plant_location <chr>, number_of_assets <dbl>,
#> #   is_ultimate_owner <lgl>, is_ultimate_listed_owner <lgl>,
#> #   ald_timestamp <chr>
…
