A dataset outlining various region definitions — region_isos_demo • r2dii.data
…
Other demo datasets: 
ald_demo,
co2_intensity_scenario_demo,
loanbook_demo,
overwrite_demo,
scenario_demo_2020

    Examples

region_isos_demo

#> # A tibble: 331 x 3
#>    region             isos  source   
#>    <chr>              <chr> <chr>    
#>  1 advanced economies bg    demo_2020
#>  2 advanced economies hr    demo_2020
#>  3 advanced economies cy    demo_2020
#>  4 advanced economies mt    demo_2020
#>  5 advanced economies ro    demo_2020
#>  6 advanced economies au    demo_2020
#>  7 advanced economies at    demo_2020
#>  8 advanced economies be    demo_2020
#>  9 advanced economies ca    demo_2020
#> 10 advanced economies cl    demo_2020
#> # … with 321 more rows
…
